<?xml version="1.0" encoding="UTF-8" standalone="no"?>
<svg
   xmlns:dc="http://purl.org/dc/elements/1.1/"
   xmlns:cc="http://creativecommons.org/ns#"
   xmlns:rdf="http://www.w3.org/1999/02/22-rdf-syntax-ns#"
   xmlns:svg="http://www.w3.org/2000/svg"
   xmlns="http://www.w3.org/2000/svg"
   xmlns:sodipodi="http://sodipodi.sourceforge.net/DTD/sodipodi-0.dtd"
   xmlns:inkscape="http://www.inkscape.org/namespaces/inkscape"
   width="24"
   height="24"
   version="1.1"
   style="enable-background:new"
   id="svg24"
   sodipodi:docname="close-hover.svg"
   inkscape:version="0.92.3 (2405546, 2018-03-11)">
  <metadata
     id="metadata30">
    <rdf:RDF>
      <cc:Work
         rdf:about="">
        <dc:format>image/svg+xml</dc:format>
        <dc:type
           rdf:resource="http://purl.org/dc/dcmitype/StillImage" />
        <dc:title></dc:title>
      </cc:Work>
    </rdf:RDF>
  </metadata>
  <defs
     id="defs28" />
  <sodipodi:namedview
     pagecolor="#ffffff"
     bordercolor="#666666"
     borderopacity="1"
     objecttolerance="10"
     gridtolerance="10"
     guidetolerance="10"
     inkscape:pageopacity="0"
     inkscape:pageshadow="2"
     inkscape:window-width="1680"
     inkscape:window-height="994"
     id="namedview26"
     showgrid="false"
     inkscape:zoom="9.8333333"
     inkscape:cx="-9.2033899"
     inkscape:cy="12"
     inkscape:window-x="0"
     inkscape:window-y="0"
     inkscape:window-maximized="1"
     inkscape:current-layer="svg24" />
  <rect
     style="opacity:1;fill:#ffffff;fill-opacity:1;stroke:#000000;stroke-width:1.09268796;stroke-linecap:square;stroke-linejoin:round;stroke-miterlimit:4;stroke-dasharray:none;stroke-opacity:1"
     id="rect1088"
     width="21.001831"
     height="16.890362"
     x="1.6356543"
     y="3.6056659" />
  <path
     style="opacity:1;fill:#000000;fill-opacity:1;stroke:none;stroke-width:0.10169491;stroke-linecap:square;stroke-linejoin:round;stroke-miterlimit:4;stroke-dasharray:none;stroke-opacity:1"
     d="M 8.7191768,15.452267 C 8.3697335,15.15823 8.2189942,14.668986 8.335195,14.206006 8.3734035,14.053771 8.8350055,13.491278 9.3614467,12.955449 L 10.318254,11.98158 9.4484027,11.121299 C 8.5202592,10.203366 8.2881356,9.8684969 8.2881356,9.4474577 c 0,-0.8273028 0.9366889,-1.4237936 1.6592279,-1.0566092 0.1221705,0.062085 0.6349275,0.5197878 1.1394605,1.0171165 l 0.917333,0.904234 0.862328,-0.8719086 c 0.474281,-0.4795498 0.985903,-0.9372522 1.136939,-1.0171165 1.003121,-0.5304266 2.093659,0.5601118 1.563233,1.5632322 -0.07986,0.1510359 -0.536641,0.6617379 -1.01506,1.1348929 l -0.869851,0.860281 0.956807,0.973869 c 0.526441,0.535829 0.988043,1.098322 1.026252,1.250557 0.116201,0.46298 -0.03454,0.952224 -0.383982,1.246261 -0.278423,0.234277 -0.390477,0.264769 -0.820991,0.223402 -0.472893,-0.04544 -0.548987,-0.09833 -1.477962,-1.027306 l -0.979401,-0.979401 -0.98322,0.97953 c -0.931095,0.927601 -1.009579,0.982064 -1.4804307,1.027306 -0.4289878,0.04122 -0.5414526,0.01055 -0.8196415,-0.223531 z"
     id="path1090"
     inkscape:connector-curvature="0" />
  <path
     style="opacity:1;fill:#b3b3b3;fill-opacity:1;stroke:none;stroke-width:0.10169491;stroke-linecap:square;stroke-linejoin:round;stroke-miterlimit:4;stroke-dasharray:none;stroke-opacity:1"
     d="M 2.1864406,12.040678 V 4.2101695 h 9.9152544 9.915254 v 7.8305085 7.830508 H 12.101695 2.1864406 Z m 8.7751534,2.711843 1.037744,-0.949173 1.038734,0.949173 c 1.016927,0.929248 1.049271,0.949174 1.540644,0.949174 0.447229,0 0.536295,-0.03916 0.817529,-0.359471 0.248131,-0.282605 0.315619,-0.452767 0.315619,-0.795787 0,-0.408077 -0.06358,-0.507371 -0.982345,-1.534176 -0.798055,-0.891897 -0.952556,-1.11453 -0.823555,-1.186723 0.08733,-0.04888 0.52939,-0.501732 0.982345,-1.006349 0.777037,-0.8656609 0.823555,-0.943812 0.823555,-1.3835909 0,-0.3944887 -0.05313,-0.5192334 -0.345762,-0.8118692 -0.29261,-0.2926101 -0.417397,-0.3457628 -0.811749,-0.3457628 -0.442528,0 -0.514717,0.044095 -1.433899,0.8758582 -0.532351,0.4817219 -0.967912,0.9164677 -0.967912,0.9661017 0,0.201432 -0.213062,0.04718 -1.209763,-0.8758582 C 9.9448505,8.3198965 9.8796108,8.2779661 9.4396173,8.2779661 c -0.9253846,0 -1.4565045,0.9840418 -0.9605417,1.7796609 0.1045988,0.167797 0.5354458,0.668391 0.9574377,1.112433 l 0.7672577,0.807347 -0.9578176,1.06745 c -0.893809,0.996115 -0.9578178,1.096535 -0.9578178,1.502673 0,0.341797 0.067752,0.512389 0.3156195,0.794694 0.2812868,0.320368 0.3702525,0.359471 0.8178569,0.359471 0.491857,0 0.5236858,-0.01962 1.539982,-0.949174 z"
     id="path1100"
     inkscape:connector-curvature="0" />
</svg>
