<?xml version="1.0" encoding="UTF-8" standalone="no"?>
<svg
   xmlns:dc="http://purl.org/dc/elements/1.1/"
   xmlns:cc="http://creativecommons.org/ns#"
   xmlns:rdf="http://www.w3.org/1999/02/22-rdf-syntax-ns#"
   xmlns:svg="http://www.w3.org/2000/svg"
   xmlns="http://www.w3.org/2000/svg"
   xmlns:sodipodi="http://sodipodi.sourceforge.net/DTD/sodipodi-0.dtd"
   xmlns:inkscape="http://www.inkscape.org/namespaces/inkscape"
   width="24"
   height="24"
   version="1.1"
   style="enable-background:new"
   id="svg2"
   inkscape:version="0.92.3 (2405546, 2018-03-11)"
   sodipodi:docname="maximize-normal.svg">
  <metadata
     id="metadata16">
    <rdf:RDF>
      <cc:Work
         rdf:about="">
        <dc:format>image/svg+xml</dc:format>
        <dc:type
           rdf:resource="http://purl.org/dc/dcmitype/StillImage" />
        <dc:title></dc:title>
      </cc:Work>
    </rdf:RDF>
  </metadata>
  <defs
     id="defs14" />
  <sodipodi:namedview
     pagecolor="#ffffff"
     bordercolor="#666666"
     borderopacity="1"
     objecttolerance="10"
     gridtolerance="10"
     guidetolerance="10"
     inkscape:pageopacity="0"
     inkscape:pageshadow="2"
     inkscape:window-width="1680"
     inkscape:window-height="994"
     id="namedview12"
     showgrid="false"
     inkscape:zoom="13.906433"
     inkscape:cx="-7.5933222"
     inkscape:cy="12.291448"
     inkscape:window-x="0"
     inkscape:window-y="0"
     inkscape:window-maximized="1"
     inkscape:current-layer="g3360" />
  <g
     id="g3360"
     transform="matrix(1.2208638,0,0,1.2208638,-2.6144117,-2.686321)">
    <rect
       style="opacity:1;fill:#ffffff;fill-opacity:1;stroke:#000000;stroke-width:0.8950122;stroke-linecap:square;stroke-linejoin:round;stroke-miterlimit:4;stroke-dasharray:none;stroke-opacity:1;enable-background:new"
       id="rect1088"
       width="17.202436"
       height="13.834764"
       x="3.4811959"
       y="5.1537175" />
    <rect
       style="opacity:0.5;fill:#000000;fill-opacity:1;stroke:none;stroke-width:2;stroke-linecap:round;stroke-linejoin:round;stroke-miterlimit:4;stroke-dasharray:none;stroke-opacity:1;enable-background:new"
       width="8"
       height="2"
       x="8"
       y="10.998"
       ry="1"
       id="rect3352" />
    <rect
       transform="rotate(90)"
       style="opacity:0.5;fill:#000000;fill-opacity:1;stroke:none;stroke-width:2;stroke-linecap:round;stroke-linejoin:round;stroke-miterlimit:4;stroke-dasharray:none;stroke-opacity:1;enable-background:new"
       width="8"
       height="2"
       x="8.0508471"
       y="-13.050847"
       ry="1"
       id="rect3352-3" />
    <path
       style="opacity:1;fill:#000000;fill-opacity:1;stroke:none;stroke-width:0.07190917;stroke-linecap:square;stroke-linejoin:round;stroke-miterlimit:4;stroke-dasharray:none;stroke-opacity:1"
       d="m 11.64238,16.862891 c -0.251813,-0.09462 -0.516153,-0.338459 -0.648811,-0.598489 -0.12691,-0.248764 -0.14219,-0.42585 -0.14219,-1.647855 v -1.369139 l -1.2404333,-0.0017 C 8.290478,13.243866 7.9171155,13.193699 7.6210317,12.978312 7.3724949,12.797514 7.1121022,12.270929 7.1121022,11.949116 c 0,-0.381935 0.2824021,-0.865358 0.6166227,-1.05555 0.265578,-0.15113 0.3660923,-0.160683 1.7024479,-0.161796 l 1.4202062,-0.0012 V 9.3974031 c 0,-1.4928891 0.05956,-1.7305308 0.515011,-2.0548397 0.348128,-0.2478891 0.965429,-0.273717 1.351809,-0.05656 0.559466,0.3144375 0.610722,0.4800869 0.637522,2.0603322 l 0.02347,1.3842514 1.342799,0.0012 c 1.256238,0.0011 1.360992,0.01154 1.62504,0.161796 0.334251,0.190209 0.617354,0.674815 0.615044,1.05281 -0.0025,0.407235 -0.23585,0.834298 -0.580622,1.062571 -0.303915,0.201222 -0.314406,0.202663 -1.654238,0.227134 l -1.348384,0.02463 -0.0233,1.413556 c -0.02647,1.605993 -0.07694,1.774672 -0.622783,2.081455 -0.27419,0.154103 -0.822148,0.207961 -1.090377,0.107172 z"
       id="path821"
       inkscape:connector-curvature="0"
       transform="matrix(0.81909219,0,0,0.81909219,2.1414442,2.2003445)" />
  </g>
</svg>
