<?xml version="1.0" encoding="UTF-8" standalone="no"?>
<svg
   xmlns:dc="http://purl.org/dc/elements/1.1/"
   xmlns:cc="http://creativecommons.org/ns#"
   xmlns:rdf="http://www.w3.org/1999/02/22-rdf-syntax-ns#"
   xmlns:svg="http://www.w3.org/2000/svg"
   xmlns="http://www.w3.org/2000/svg"
   xmlns:sodipodi="http://sodipodi.sourceforge.net/DTD/sodipodi-0.dtd"
   xmlns:inkscape="http://www.inkscape.org/namespaces/inkscape"
   width="24"
   height="24"
   version="1.1"
   style="enable-background:new"
   id="svg836"
   sodipodi:docname="minimize-normal.svg"
   inkscape:version="0.92.3 (2405546, 2018-03-11)">
  <metadata
     id="metadata842">
    <rdf:RDF>
      <cc:Work
         rdf:about="">
        <dc:format>image/svg+xml</dc:format>
        <dc:type
           rdf:resource="http://purl.org/dc/dcmitype/StillImage" />
        <dc:title></dc:title>
      </cc:Work>
    </rdf:RDF>
  </metadata>
  <defs
     id="defs840" />
  <sodipodi:namedview
     pagecolor="#ffffff"
     bordercolor="#666666"
     borderopacity="1"
     objecttolerance="10"
     gridtolerance="10"
     guidetolerance="10"
     inkscape:pageopacity="0"
     inkscape:pageshadow="2"
     inkscape:window-width="1680"
     inkscape:window-height="994"
     id="namedview838"
     showgrid="false"
     inkscape:zoom="9.8333333"
     inkscape:cx="-9.2033899"
     inkscape:cy="12"
     inkscape:window-x="0"
     inkscape:window-y="0"
     inkscape:window-maximized="1"
     inkscape:current-layer="svg836" />
  <rect
     style="opacity:1;fill:#ffffff;fill-opacity:1;stroke:#000000;stroke-width:1.09268796;stroke-linecap:square;stroke-linejoin:round;stroke-miterlimit:4;stroke-dasharray:none;stroke-opacity:1;enable-background:new"
     id="rect1088"
     width="21.001831"
     height="16.890362"
     x="1.6356543"
     y="3.6056659" />
  <path
     style="opacity:1;fill:#000000;fill-opacity:1;stroke:none;stroke-width:0.10169491;stroke-linecap:square;stroke-linejoin:round;stroke-miterlimit:4;stroke-dasharray:none;stroke-opacity:1"
     d="M 7.7610175,12.984633 C 7.3930431,12.756367 7.2221924,12.406412 7.2352682,11.907735 c 0.0089,-0.33937 0.077614,-0.47597 0.3778363,-0.751103 L 7.980064,10.820339 H 12 16.019936 l 0.366959,0.336293 c 0.300223,0.275133 0.368938,0.411733 0.377837,0.751103 0.006,0.228145 -0.05524,0.538344 -0.136044,0.689332 -0.296635,0.554269 -0.36492,0.562487 -4.649062,0.559549 -3.5005575,-0.0024 -3.9765151,-0.0218 -4.2186085,-0.171983 z"
     id="path815"
     inkscape:connector-curvature="0" />
</svg>
